%YAML 1.1
%TAG !u! tag:unity3d.com,2011:
--- !u!1045 &1
EditorBuildSettings:
  m_ObjectHideFlags: 0
  serializedVersion: 2
  m_Scenes:
  - enabled: 1
    path: Assets/scenes/MainMenu.unity
    guid: 689ae1754ecb74e5b8da7fe7a5f397dd
  - enabled: 0
    path: Assets/scenes/TestLevel.unity
    guid: 5f9803070567747e6b2152cbace00545
  - enabled: 0
    path: Assets/scenes/Level1.unity
    guid: 53cf4295ec5a4d54c9ee4084ec9a3bbd
  - enabled: 0
    path: 
    guid: 0884fcdfaf0011743a66f79d0d99df70
  - enabled: 0
    path: 
    guid: 8dc46905a7a0fa1408b662d819b67f92
  - enabled: 1
    path: Assets/scenes/Solo.unity
    guid: d4f557189cbe86c4885eba120142ef26
  - enabled: 1
    path: Assets/scenes/GameOver.unity
    guid: e4961d969619aaf40845bdbe66e1ea86
